Copyright 1986-2019 Xilinx, Inc. All Rights Reserved.
------------------------------------------------------------------------------------
| Tool Version : Vivado v.2019.1 (win64) Build 2552052 Fri May 24 14:49:42 MDT 2019
| Date         : Thu Feb  4 19:43:25 2021
| Host         : LAPTOP-7BL7BHFF running 64-bit major release  (build 9200)
| Command      : report_control_sets -verbose -file top_control_sets_placed.rpt
| Design       : top
| Device       : xc7a100t
------------------------------------------------------------------------------------

Control Set Information

Table of Contents
-----------------
1. Summary
2. Histogram
3. Flip-Flop Distribution
4. Detailed Control Set Information

1. Summary
----------

+----------------------------------------------------------+-------+
|                          Status                          | Count |
+----------------------------------------------------------+-------+
| Total control sets                                       |     7 |
|    Minimum number of control sets                        |     7 |
|    Addition due to synthesis replication                 |     0 |
|    Addition due to physical synthesis replication        |     0 |
| Unused register locations in slices containing registers |    30 |
+----------------------------------------------------------+-------+
* Control sets can be merged at opt_design using control_set_merge or merge_equivalent_drivers
** Run report_qor_suggestions for automated merging and remapping suggestions


2. Histogram
------------

+--------------------+-------+
|       Fanout       | Count |
+--------------------+-------+
| Total control sets |     7 |
| >= 0 to < 4        |     1 |
| >= 4 to < 6        |     0 |
| >= 6 to < 8        |     0 |
| >= 8 to < 10       |     2 |
| >= 10 to < 12      |     1 |
| >= 12 to < 14      |     1 |
| >= 14 to < 16      |     0 |
| >= 16              |     2 |
+--------------------+-------+
* Control sets can be remapped at either synth_design or opt_design


3. Flip-Flop Distribution
-------------------------

+--------------+-----------------------+------------------------+-----------------+--------------+
| Clock Enable | Synchronous Set/Reset | Asynchronous Set/Reset | Total Registers | Total Slices |
+--------------+-----------------------+------------------------+-----------------+--------------+
| No           | No                    | No                     |              75 |           29 |
| No           | No                    | Yes                    |              22 |           13 |
| No           | Yes                   | No                     |               0 |            0 |
| Yes          | No                    | No                     |              16 |            7 |
| Yes          | No                    | Yes                    |               1 |            1 |
| Yes          | Yes                   | No                     |               0 |            0 |
+--------------+-----------------------+------------------------+-----------------+--------------+


4. Detailed Control Set Information
-----------------------------------

+----------------------+-------------------------------------------+-------------------------------------------------------------------------+------------------+----------------+
|     Clock Signal     |               Enable Signal               |                             Set/Reset Signal                            | Slice Load Count | Bel Load Count |
+----------------------+-------------------------------------------+-------------------------------------------------------------------------+------------------+----------------+
|  clk_BUFG            | inst_fsm/Inst_gestion_refresco/dot        | inst_display/Inst_contador/AR[0]                                        |                1 |              1 |
|  clk_BUFG            | inst_detectorflancos/inst_edgedtctr7/E[0] |                                                                         |                5 |              8 |
|  clk_BUFG            | inst_fsm/Inst_gestion_dinero/clr_dinero   |                                                                         |                2 |              8 |
|  clk_BUFG            |                                           | inst_fsm/Inst_gestion_dinero/FSM_sequential_current_state[1]_i_2__0_n_0 |                3 |             10 |
|  clk_BUFG            |                                           | inst_display/Inst_contador/AR[0]                                        |               10 |             12 |
|  clk_100Mh_IBUF_BUFG |                                           |                                                                         |                6 |             18 |
|  clk_BUFG            |                                           |                                                                         |               23 |             67 |
+----------------------+-------------------------------------------+-------------------------------------------------------------------------+------------------+----------------+


