# compile vhdl design source files
vhdl xil_defaultlib  \
"../../../../MaquinaExpendedora.srcs/sources_1/new/decod_monedas.vhd" \
"../../../../MaquinaExpendedora.srcs/sources_1/new/detectorflancos.vhd" \
"../../../../MaquinaExpendedora.srcs/sources_1/new/edgedetector.vhd" \
"../../../../MaquinaExpendedora.srcs/sources_1/new/fsm.vhd" \
"../../../../MaquinaExpendedora.srcs/sources_1/new/sincronizador.vhd" \
"../../../../MaquinaExpendedora.srcs/sources_1/new/synchronizer.vhd" \
"../../../../MaquinaExpendedora.srcs/sources_1/new/top.vhd" \
"../../../../MaquinaExpendedora.srcs/sources_1/new/decoder_3x8_n.vhd" \
"../../../../MaquinaExpendedora.srcs/sources_1/new/contador.vhd" \
"../../../../MaquinaExpendedora.srcs/sources_1/new/digito.vhd" \
"../../../../MaquinaExpendedora.srcs/sources_1/new/int_to_string.vhd" \
"../../../../MaquinaExpendedora.srcs/sources_1/imports/new/prescaler.vhd" \
"../../../../MaquinaExpendedora.srcs/sources_1/new/gestion_refresco.vhd" \
"../../../../MaquinaExpendedora.srcs/sources_1/new/gestion_dinero.vhd" \
"../../../../MaquinaExpendedora.srcs/sources_1/new/display.vhd" \
"../../../../MaquinaExpendedora.srcs/sim_1/imports/new/decoder_3x8_n_tb.vhd" \
"../../../../MaquinaExpendedora.srcs/sim_1/imports/new/prescaler_tb.vhd" \
"../../../../MaquinaExpendedora.srcs/sim_1/imports/new/display_tb.vhd" \
"../../../../MaquinaExpendedora.srcs/sim_1/imports/new/contador_tb.vhd" \
"../../../../MaquinaExpendedora.srcs/sim_1/imports/new/digito_tb.vhd" \
"../../../../MaquinaExpendedora.srcs/sim_1/new/fsm_tb.vhd" \
"../../../../MaquinaExpendedora.srcs/sim_1/new/top_tb.vhd" \
"../../../../MaquinaExpendedora.srcs/sim_1/new/decodmonedas_tb.vhd" \
"../../../../MaquinaExpendedora.srcs/sim_1/new/detectorflancos_tb.vhd" \
"../../../../MaquinaExpendedora.srcs/sim_1/new/int_to_string_tb.vhd" \
"../../../../MaquinaExpendedora.srcs/sim_1/new/sincronizador_tb.vhd" \
"../../../../MaquinaExpendedora.srcs/sim_1/new/gestion_refresco_tb.vhd" \
"../../../../MaquinaExpendedora.srcs/sim_1/new/gestion_dinero_tb.vhd" \
"../../../../MaquinaExpendedora.srcs/sim_1/new/top_synt_tb.vhd" \
"../../../../MaquinaExpendedora.srcs/sim_1/new/fsm_synt_tb.vhd" \
"../../../../MaquinaExpendedora.srcs/sim_1/new/gestion_dinero_synth_tb.vhd" \

# Do not sort compile order
nosort
